{
  "Cameras": [
    {
      "Fov": 70.0,
      "Position": [ 0.0, 0.0, 10.0 ],
      "Type": "perspective"
    }
  ],

  "Lights": [
    {
      "Attenuation": [ 1.0, 0.0, 0.0 ],
      "Color": [ 1.0, 1.0, 1.0, 1.0 ],
      "Intensity": 1.0,
      "Position": [ 1.0, 0.0, 0.0, 0.0 ]
    }
  ],

  "Models": [
    {
      "File": "res/models/donut.blend",
      "Translation": [ 0.0, 0.0, 0.0 ],
      "Rotation": [ 0.0, 0.0, 0.0 ],
      "Scale": [ 1.0, 1.0, 1.0 ],
      "Shader": "res/shaders/fwRender.glsl",
      "Uniforms": []
    },
    {
      "File": "res/models/donut.blend",
      "Translation": [ 0.0, 0.0, 0.0 ],
      "Rotation": [ 0.0, 0.0, 0.0 ],
      "Scale": [ 1.0, 1.0, 1.0 ],
      "Shader": "res/shaders/geometry/explode.glsl",
      "Uniforms": [
        [ "m", "M", "Magnitude", 0.001, 0.001 ]
      ]
    }
  ],

  "PostProcess": [
  ]
}
